{
  "$schema": "https://json.schemastore.org/launchsettings.json",
  "iisSettings": {
    "windowsAuthentication": false,
    "anonymousAuthentication": true,
    "iisExpress": {
      "applicationUrl": "http://localhost:9000",
      "sslPort": 0
    }
  },
  "profiles": {
    "ROTOLU": {
      "commandName": "Project",
      "launchBrowser": true,
      "launchUrl": "",
      "environmentVariables": {
        "ASPNETCORE_ENVIRONMENT": "Development",
        "APIDOCS_IMAGE_VERSION": "latest"
      },
      "applicationUrl": "https://localhost:9000;http://localhost:5195",
      "dotnetRunMessages": true
    },
    "IIS Express": {
      "commandName": "IISExpress",
      "launchBrowser": true,
      "launchUrl": "",
      "environmentVariables": {
        "ASPNETCORE_ENVIRONMENT": "Development"
      }
    },
    "Docker": {
      "commandName": "Docker",
      "launchBrowser": true,
      "launchUrl": "{Scheme}://{ServiceHost}:{ServicePort}/",
      "publishAllPorts": true,
      "useSSL": true
    }
  }
}